---
http_interactions:
- request:
    method: get
    uri: https://api.pexels.com/v1/search?per_page=1&query=denver%20downtown
    body:
      encoding: US-ASCII
      string: ''
    headers:
      Authorization:
      - "<IMAGE_KEY>"
      User-Agent:
      - Faraday v1.4.1
      Accept-Encoding:
      - gzip;q=1.0,deflate;q=0.6,identity;q=0.3
      Accept:
      - "*/*"
  response:
    status:
      code: 200
      message: OK
    headers:
      Date:
      - Tue, 27 Apr 2021 21:32:57 GMT
      Content-Type:
      - application/json; charset=utf-8
      Content-Length:
      - '458'
      Connection:
      - keep-alive
      Set-Cookie:
      - __cf_bm=2d05115e5dd2fa6e4ca8317729ed1bbf196dc791-1619559177-1800-AXDUyUI4Ym7k3AphAjGHUXoJ7fO48nlk7Dz3dKdJVDhoaF0CkJmlm6SeD1a34WRF5HssEqGMGGKpnAfFtZX36gQ=;
        path=/; expires=Tue, 27-Apr-21 22:02:57 GMT; domain=.pexels.com; HttpOnly;
        Secure; SameSite=None
      - __cf_bm=d540a8664fbbbd93524c0d7b8f19a76aee264a9a-1619558162-1800-AUWU+6ypsPn69VHyIhh5II/eKnW58S/dnyW85ZA1FJFOfGdtuqTuSiB+rLpRMoZsFpjCHnkl+KBBfIUVbuN30vo=;
        path=/; expires=Tue, 27-Apr-21 21:46:02 GMT; domain=.pexels.com; HttpOnly;
        Secure; SameSite=None
      - __cfduid=d2b0de8ffc02b59b9549b27becf5946631619558161; expires=Thu, 27-May-21
        21:16:01 GMT; path=/; domain=.pexels.com; HttpOnly; SameSite=Lax; Secure
      - __cfduid=d89fd7c3b96d51519631495b58e26e7311619559177; expires=Thu, 27-May-21
        21:32:57 GMT; path=/; domain=.pexels.com; HttpOnly; SameSite=Lax; Secure
      Alt-Svc:
      - h3-27=":443"; ma=86400, h3-28=":443"; ma=86400, h3-29=":443"; ma=86400
      Cache-Control:
      - max-age=0, private, must-revalidate
      Cf-Cache-Status:
      - DYNAMIC
      Cf-Request-Id:
      - '09b6d8f52f000027e42aa72000000001'
      Expect-Ct:
      - max-age=604800, report-uri="https://report-uri.cloudflare.com/cdn-cgi/beacon/expect-ct"
      Vary:
      - Origin
      X-Frame-Options:
      - ALLOWALL
      X-Ratelimit-Limit:
      - '20000'
      X-Ratelimit-Remaining:
      - '19981'
      X-Ratelimit-Reset:
      - '1621826158'
      X-Request-Id:
      - 65eff680-10a4-416e-b819-cd114f828bdb
      X-Runtime:
      - '0.129913'
      X-Server:
      - master
      X-Tyk-Cached-Response:
      - '1'
      Server:
      - cloudflare
      Cf-Ray:
      - 646b2a9b7ae327e4-SLC
    body:
      encoding: ASCII-8BIT
      string: '{"page":1,"per_page":1,"photos":[{"id":3751010,"width":3712,"height":5568,"url":"https://www.pexels.com/photo/red-and-white-concrete-building-during-night-time-3751010/","photographer":"Colin
        Lloyd","photographer_url":"https://www.pexels.com/@colin-lloyd-2120291","photographer_id":2120291,"avg_color":"#5A4741","src":{"original":"https://images.pexels.com/photos/3751010/pexels-photo-3751010.jpeg","large2x":"https://images.pexels.com/photos/3751010/pexels-photo-3751010.jpeg?auto=compress\u0026cs=tinysrgb\u0026dpr=2\u0026h=650\u0026w=940","large":"https://images.pexels.com/photos/3751010/pexels-photo-3751010.jpeg?auto=compress\u0026cs=tinysrgb\u0026h=650\u0026w=940","medium":"https://images.pexels.com/photos/3751010/pexels-photo-3751010.jpeg?auto=compress\u0026cs=tinysrgb\u0026h=350","small":"https://images.pexels.com/photos/3751010/pexels-photo-3751010.jpeg?auto=compress\u0026cs=tinysrgb\u0026h=130","portrait":"https://images.pexels.com/photos/3751010/pexels-photo-3751010.jpeg?auto=compress\u0026cs=tinysrgb\u0026fit=crop\u0026h=1200\u0026w=800","landscape":"https://images.pexels.com/photos/3751010/pexels-photo-3751010.jpeg?auto=compress\u0026cs=tinysrgb\u0026fit=crop\u0026h=627\u0026w=1200","tiny":"https://images.pexels.com/photos/3751010/pexels-photo-3751010.jpeg?auto=compress\u0026cs=tinysrgb\u0026dpr=1\u0026fit=crop\u0026h=200\u0026w=280"},"liked":false}],"total_results":8000,"next_page":"https://api.pexels.com/v1/search/?page=2\u0026per_page=1\u0026query=denver+downtown"}'
  recorded_at: Tue, 27 Apr 2021 21:32:57 GMT
recorded_with: VCR 6.0.0
